RFC,RAZON_SOCIAL,CALLE,NUMERO_EXTERIOR,NUMERO_INTERIOR,COLONIA,delegacion,DELEGACION,ESTADO,PAIS,CODIGO_POSTAL,EMAIL,Eticket,FECHA_EMISION
CNN050429887,CONSEJO NACIONAL DE NORMALIZACION Y CERTIFICACION DE COMPETENCIAS LABORALES,AV. BARRANCA DEL MUERTO,275,,COL. SAN JOSE INSURGENTES,DELEG. BENITO JUAREZ,DELEG. BENITO JUAREZ,D.F.,MEXICO,3900,vgarcia@elmundoestuyo.com.mx; ventas01@elmundoestuyo.com.mx; ventas02@elmundoestuyo.com.mx,1398941123327,10/08/2016
CNN050429887,CONSEJO NACIONAL DE NORMALIZACION Y CERTIFICACION DE COMPETENCIAS LABORALES,AV. BARRANCA DEL MUERTO,275,,COL. SAN JOSE INSURGENTES,DELEG. BENITO JUAREZ,DELEG. BENITO JUAREZ,D.F.,MEXICO,3900,vgarcia@elmundoestuyo.com.mx; ventas01@elmundoestuyo.com.mx; ventas02@elmundoestuyo.com.mx,1392719030558,10/08/2016
CNN050429887,CONSEJO NACIONAL DE NORMALIZACION Y CERTIFICACION DE COMPETENCIAS LABORALES,AV. BARRANCA DEL MUERTO,275,,COL. SAN JOSE INSURGENTES,DELEG. BENITO JUAREZ,DELEG. BENITO JUAREZ,D.F.,MEXICO,3900,vgarcia@elmundoestuyo.com.mx; ventas01@elmundoestuyo.com.mx; ventas02@elmundoestuyo.com.mx,1392816593658,10/08/2016
CNN050429887,CONSEJO NACIONAL DE NORMALIZACION Y CERTIFICACION DE COMPETENCIAS LABORALES,AV. BARRANCA DEL MUERTO,275,,COL. SAN JOSE INSURGENTES,DELEG. BENITO JUAREZ,DELEG. BENITO JUAREZ,D.F.,MEXICO,3900,vgarcia@elmundoestuyo.com.mx; ventas01@elmundoestuyo.com.mx; ventas02@elmundoestuyo.com.mx,1392816594429,18/08/2016
CNN050429887,CONSEJO NACIONAL DE NORMALIZACION Y CERTIFICACION DE COMPETENCIAS LABORALES,AV. BARRANCA DEL MUERTO,275,,COL. SAN JOSE INSURGENTES,DELEG. BENITO JUAREZ,DELEG. BENITO JUAREZ,D.F.,MEXICO,3900,vgarcia@elmundoestuyo.com.mx; ventas01@elmundoestuyo.com.mx; ventas02@elmundoestuyo.com.mx,1392816594513,19/08/2016
CNN050429887,CONSEJO NACIONAL DE NORMALIZACION Y CERTIFICACION DE COMPETENCIAS LABORALES,AV. BARRANCA DEL MUERTO,275,,COL. SAN JOSE INSURGENTES,DELEG. BENITO JUAREZ,DELEG. BENITO JUAREZ,D.F.,MEXICO,3900,vgarcia@elmundoestuyo.com.mx; ventas01@elmundoestuyo.com.mx; ventas02@elmundoestuyo.com.mx,1398941140327,23/08/2016
CNN050429887,CONSEJO NACIONAL DE NORMALIZACION Y CERTIFICACION DE COMPETENCIAS LABORALES,AV. BARRANCA DEL MUERTO,275,,COL. SAN JOSE INSURGENTES,DELEG. BENITO JUAREZ,DELEG. BENITO JUAREZ,D.F.,MEXICO,3900,vgarcia@elmundoestuyo.com.mx; ventas01@elmundoestuyo.com.mx; ventas02@elmundoestuyo.com.mx,1392816595004,23/08/2016
CNN050429887,CONSEJO NACIONAL DE NORMALIZACION Y CERTIFICACION DE COMPETENCIAS LABORALES,AV. BARRANCA DEL MUERTO,275,,COL. SAN JOSE INSURGENTES,DELEG. BENITO JUAREZ,DELEG. BENITO JUAREZ,D.F.,MEXICO,3900,vgarcia@elmundoestuyo.com.mx; ventas01@elmundoestuyo.com.mx; ventas02@elmundoestuyo.com.mx,1398941150559,31/08/2016
CNN050429887,CONSEJO NACIONAL DE NORMALIZACION Y CERTIFICACION DE COMPETENCIAS LABORALES,AV. BARRANCA DEL MUERTO,275,,COL. SAN JOSE INSURGENTES,DELEG. BENITO JUAREZ,DELEG. BENITO JUAREZ,D.F.,MEXICO,3900,vgarcia@elmundoestuyo.com.mx; ventas01@elmundoestuyo.com.mx; ventas02@elmundoestuyo.com.mx,1398941155365,02/09/2016
CNN050429887,CONSEJO NACIONAL DE NORMALIZACION Y CERTIFICACION DE COMPETENCIAS LABORALES,AV. BARRANCA DEL MUERTO,275,,COL. SAN JOSE INSURGENTES,DELEG. BENITO JUAREZ,DELEG. BENITO JUAREZ,D.F.,MEXICO,3900,vgarcia@elmundoestuyo.com.mx; ventas01@elmundoestuyo.com.mx; ventas02@elmundoestuyo.com.mx,1398941153576,02/09/2016
CNN050429887,CONSEJO NACIONAL DE NORMALIZACION Y CERTIFICACION DE COMPETENCIAS LABORALES,AV. BARRANCA DEL MUERTO,275,,COL. SAN JOSE INSURGENTES,DELEG. BENITO JUAREZ,DELEG. BENITO JUAREZ,D.F.,MEXICO,3900,vgarcia@elmundoestuyo.com.mx; ventas01@elmundoestuyo.com.mx; ventas02@elmundoestuyo.com.mx,1392816596073,02/09/2016
CNN050429887,CONSEJO NACIONAL DE NORMALIZACION Y CERTIFICACION DE COMPETENCIAS LABORALES,AV. BARRANCA DEL MUERTO,275,,COL. SAN JOSE INSURGENTES,DELEG. BENITO JUAREZ,DELEG. BENITO JUAREZ,D.F.,MEXICO,3900,vgarcia@elmundoestuyo.com.mx; ventas01@elmundoestuyo.com.mx; ventas02@elmundoestuyo.com.mx,1392816596267,05/09/2016
CNN050429887,CONSEJO NACIONAL DE NORMALIZACION Y CERTIFICACION DE COMPETENCIAS LABORALES,AV. BARRANCA DEL MUERTO,275,,COL. SAN JOSE INSURGENTES,DELEG. BENITO JUAREZ,DELEG. BENITO JUAREZ,D.F.,MEXICO,3900,vgarcia@elmundoestuyo.com.mx; ventas01@elmundoestuyo.com.mx; ventas02@elmundoestuyo.com.mx,1398941155303,02/09/2016
CNN050429887,CONSEJO NACIONAL DE NORMALIZACION Y CERTIFICACION DE COMPETENCIAS LABORALES,AV. BARRANCA DEL MUERTO,275,,COL. SAN JOSE INSURGENTES,DELEG. BENITO JUAREZ,DELEG. BENITO JUAREZ,D.F.,MEXICO,3900,vgarcia@elmundoestuyo.com.mx; ventas01@elmundoestuyo.com.mx; ventas02@elmundoestuyo.com.mx,1392816596197,02/09/2016
CNN050429887,CONSEJO NACIONAL DE NORMALIZACION Y CERTIFICACION DE COMPETENCIAS LABORALES,AV. BARRANCA DEL MUERTO,275,,COL. SAN JOSE INSURGENTES,DELEG. BENITO JUAREZ,DELEG. BENITO JUAREZ,D.F.,MEXICO,3900,vgarcia@elmundoestuyo.com.mx; ventas01@elmundoestuyo.com.mx; ventas02@elmundoestuyo.com.mx,1398941158321,07/09/2016
CNN050429887,CONSEJO NACIONAL DE NORMALIZACION Y CERTIFICACION DE COMPETENCIAS LABORALES,AV. BARRANCA DEL MUERTO,275,,COL. SAN JOSE INSURGENTES,DELEG. BENITO JUAREZ,DELEG. BENITO JUAREZ,D.F.,MEXICO,3900,vgarcia@elmundoestuyo.com.mx; ventas01@elmundoestuyo.com.mx; ventas02@elmundoestuyo.com.mx,1392816596697,07/09/2016
CNV060628PW6,COMISION NACIONAL DE VIVIENDA,AV. PRESIDENTE MASARYK,214,PISO 1,COL. BOSQUE DE CHAPULTEPEC 1A SECC,DELEG. MIGUEL HIDALGO,DELEG. MIGUEL HIDALGO,D.F.,MEXICO,11580,FTREJO@CONAVI.GOB.MX,1392719030557,10/08/2016
CNV060628PW6,COMISION NACIONAL DE VIVIENDA,AV. PRESIDENTE MASARYK,214,PISO 1,COL. BOSQUE DE CHAPULTEPEC 1A SECC,DELEG. MIGUEL HIDALGO,DELEG. MIGUEL HIDALGO,D.F.,MEXICO,11580,FTREJO@CONAVI.GOB.MX,1398941139308,22/08/2016
CNV060628PW6,COMISION NACIONAL DE VIVIENDA,AV. PRESIDENTE MASARYK,214,PISO 1,COL. BOSQUE DE CHAPULTEPEC 1A SECC,DELEG. MIGUEL HIDALGO,DELEG. MIGUEL HIDALGO,D.F.,MEXICO,11580,FTREJO@CONAVI.GOB.MX,1398941139309,22/08/2016
CNV060628PW6,COMISION NACIONAL DE VIVIENDA,AV. PRESIDENTE MASARYK,214,PISO 1,COL. BOSQUE DE CHAPULTEPEC 1A SECC,DELEG. MIGUEL HIDALGO,DELEG. MIGUEL HIDALGO,D.F.,MEXICO,11580,FTREJO@CONAVI.GOB.MX,1398941139355,22/08/2016
CNV060628PW6,COMISION NACIONAL DE VIVIENDA,AV. PRESIDENTE MASARYK,214,PISO 1,COL. BOSQUE DE CHAPULTEPEC 1A SECC,DELEG. MIGUEL HIDALGO,DELEG. MIGUEL HIDALGO,D.F.,MEXICO,11580,FTREJO@CONAVI.GOB.MX,1398941139356,22/08/2016
CNV060628PW6,COMISION NACIONAL DE VIVIENDA,AV. PRESIDENTE MASARYK,214,PISO 1,COL. BOSQUE DE CHAPULTEPEC 1A SECC,DELEG. MIGUEL HIDALGO,DELEG. MIGUEL HIDALGO,D.F.,MEXICO,11580,FTREJO@CONAVI.GOB.MX,1398941150553,31/08/2016
CNV060628PW6,COMISION NACIONAL DE VIVIENDA,AV. PRESIDENTE MASARYK,214,PISO 1,COL. BOSQUE DE CHAPULTEPEC 1A SECC,DELEG. MIGUEL HIDALGO,DELEG. MIGUEL HIDALGO,D.F.,MEXICO,11580,FTREJO@CONAVI.GOB.MX,1398941150554,31/08/2016
CNV060628PW6,COMISION NACIONAL DE VIVIENDA,AV. PRESIDENTE MASARYK,214,PISO 1,COL. BOSQUE DE CHAPULTEPEC 1A SECC,DELEG. MIGUEL HIDALGO,DELEG. MIGUEL HIDALGO,D.F.,MEXICO,11580,FTREJO@CONAVI.GOB.MX,1392816595875,31/08/2016
CNV060628PW6,COMISION NACIONAL DE VIVIENDA,AV. PRESIDENTE MASARYK,214,PISO 1,COL. BOSQUE DE CHAPULTEPEC 1A SECC,DELEG. MIGUEL HIDALGO,DELEG. MIGUEL HIDALGO,D.F.,MEXICO,11580,FTREJO@CONAVI.GOB.MX,1392816595876,31/08/2016
CNV060628PW6,COMISION NACIONAL DE VIVIENDA,AV. PRESIDENTE MASARYK,214,PISO 1,COL. BOSQUE DE CHAPULTEPEC 1A SECC,DELEG. MIGUEL HIDALGO,DELEG. MIGUEL HIDALGO,D.F.,MEXICO,11580,FTREJO@CONAVI.GOB.MX,1398941153575,02/09/2016
CNV060628PW6,COMISION NACIONAL DE VIVIENDA,AV. PRESIDENTE MASARYK,214,PISO 1,COL. BOSQUE DE CHAPULTEPEC 1A SECC,DELEG. MIGUEL HIDALGO,DELEG. MIGUEL HIDALGO,D.F.,MEXICO,11580,FTREJO@CONAVI.GOB.MX,1398941155330,02/09/2016
CNV060628PW6,COMISION NACIONAL DE VIVIENDA,AV. PRESIDENTE MASARYK,214,PISO 1,COL. BOSQUE DE CHAPULTEPEC 1A SECC,DELEG. MIGUEL HIDALGO,DELEG. MIGUEL HIDALGO,D.F.,MEXICO,11580,FTREJO@CONAVI.GOB.MX,1392816596207,02/09/2016
CNV060628PW6,COMISION NACIONAL DE VIVIENDA,AV. PRESIDENTE MASARYK,214,PISO 1,COL. BOSQUE DE CHAPULTEPEC 1A SECC,DELEG. MIGUEL HIDALGO,DELEG. MIGUEL HIDALGO,D.F.,MEXICO,11580,FTREJO@CONAVI.GOB.MX,1398941155334,02/09/2016
CPF6307036N8,CAMINOS Y PUENTES FEDERALES DE INGRESOS Y SERVICIOS CONEXOS,CALZADA DE LOS REYES,24,,TETELA DEL MONTE,CUERNAVACA,CUERNAVACA,MORELOS,MEXICO,62130,capufe@elmundoestuyo.com.mx,1392816594431,18/08/2016
CPF6307036N8,CAMINOS Y PUENTES FEDERALES DE INGRESOS Y SERVICIOS CONEXOS,CALZADA DE LOS REYES,24,,TETELA DEL MONTE,CUERNAVACA,CUERNAVACA,MORELOS,MEXICO,62130,capufe@elmundoestuyo.com.mx,1392816594432,18/08/2016
CPF6307036N8,CAMINOS Y PUENTES FEDERALES DE INGRESOS Y SERVICIOS CONEXOS,CALZADA DE LOS REYES,24,,TETELA DEL MONTE,CUERNAVACA,CUERNAVACA,MORELOS,MEXICO,62130,capufe@elmundoestuyo.com.mx,1392816594433,18/08/2016
CPF6307036N8,CAMINOS Y PUENTES FEDERALES DE INGRESOS Y SERVICIOS CONEXOS,CALZADA DE LOS REYES,24,,TETELA DEL MONTE,CUERNAVACA,CUERNAVACA,MORELOS,MEXICO,62130,capufe@elmundoestuyo.com.mx,1392816594434,18/08/2016
CPF6307036N8,CAMINOS Y PUENTES FEDERALES DE INGRESOS Y SERVICIOS CONEXOS,CALZADA DE LOS REYES,24,,TETELA DEL MONTE,CUERNAVACA,CUERNAVACA,MORELOS,MEXICO,62130,capufe@elmundoestuyo.com.mx,1392816594436,18/08/2016
CPF6307036N8,CAMINOS Y PUENTES FEDERALES DE INGRESOS Y SERVICIOS CONEXOS,CALZADA DE LOS REYES,24,,TETELA DEL MONTE,CUERNAVACA,CUERNAVACA,MORELOS,MEXICO,62130,capufe@elmundoestuyo.com.mx,1392816594438,18/08/2016
CPF6307036N8,CAMINOS Y PUENTES FEDERALES DE INGRESOS Y SERVICIOS CONEXOS,CALZADA DE LOS REYES,24,,TETELA DEL MONTE,CUERNAVACA,CUERNAVACA,MORELOS,MEXICO,62130,capufe@elmundoestuyo.com.mx,1392816594557,19/08/2016
CPF6307036N8,CAMINOS Y PUENTES FEDERALES DE INGRESOS Y SERVICIOS CONEXOS,CALZADA DE LOS REYES,24,,TETELA DEL MONTE,CUERNAVACA,CUERNAVACA,MORELOS,MEXICO,62130,capufe@elmundoestuyo.com.mx,1398941140374,23/08/2016
CPF6307036N8,CAMINOS Y PUENTES FEDERALES DE INGRESOS Y SERVICIOS CONEXOS,CALZADA DE LOS REYES,24,,TETELA DEL MONTE,CUERNAVACA,CUERNAVACA,MORELOS,MEXICO,62130,capufe@elmundoestuyo.com.mx,1398941141513,23/08/2016
CPF6307036N8,CAMINOS Y PUENTES FEDERALES DE INGRESOS Y SERVICIOS CONEXOS VERACRUZ,CALZADA DE LO REYES,24,,TETELA DEL MONTE,CUERNAVACA,CUERNAVACA,MORELOS,MEXICO,62130,avicente@capufe.gob.mx,1398941142302,24/08/2016
CPF6307036N8,CAMINOS Y PUENTES FEDERALES DE INGRESOS Y SERVICIOS CONEXOS VERACRUZ,CALZADA DE LO REYES,24,,TETELA DEL MONTE,CUERNAVACA,CUERNAVACA,MORELOS,MEXICO,62130,avicente@capufe.gob.mx,1398941142303,24/08/2016
CPF6307036N8,CAMINOS Y PUENTES FEDERALES DE INGRESOS Y SERVICIOS CONEXOS,CALZADA DE LOS REYES,24,,TETELA DEL MONTE,CUERNAVACA,CUERNAVACA,MORELOS,MEXICO,62130,capufe@elmundoestuyo.com.mx,1398941142985,26/08/2016
CPF6307036N8,CAMINOS Y PUENTES FEDERALES DE INGRESOS Y SERVICIOS CONEXOS,CALZADA DE LOS REYES,24,,TETELA DEL MONTE,CUERNAVACA,CUERNAVACA,MORELOS,MEXICO,62130,capufe@elmundoestuyo.com.mx,1398941142986,26/08/2016
CPF6307036N8,CAMINOS Y PUENTES FEDERALES DE INGRESOS Y SERVICIOS CONEXOS,CALZADA DE LOS REYES,24,,TETELA DEL MONTE,CUERNAVACA,CUERNAVACA,MORELOS,MEXICO,62130,capufe@elmundoestuyo.com.mx,1398941143616,26/08/2016
CPF6307036N8,CAMINOS Y PUENTES FEDERALES DE INGRESOS Y SERVICIOS CONEXOS,CALZADA DE LOS REYES,24,,TETELA DEL MONTE,CUERNAVACA,CUERNAVACA,MORELOS,MEXICO,62130,capufe@elmundoestuyo.com.mx,1398941143617,26/08/2016
CPF6307036N8,CAMINOS Y PUENTES FEDERALES DE INGRESOS Y SERVICIOS CONEXOS,CALZADA DE LOS REYES,24,,TETELA DEL MONTE,CUERNAVACA,CUERNAVACA,MORELOS,MEXICO,62130,capufe@elmundoestuyo.com.mx,1398941143697,26/08/2016
CPF6307036N8,CAMINOS Y PUENTES FEDERALES DE INGRESOS Y SERVICIOS CONEXOS VERACRUZ,CALZADA DE LO REYES,24,,TETELA DEL MONTE,CUERNAVACA,CUERNAVACA,MORELOS,MEXICO,62130,avicente@capufe.gob.mx,1398941144319,26/08/2016
CPF6307036N8,CAMINOS Y PUENTES FEDERALES DE INGRESOS Y SERVICIOS CONEXOS,CALZADA DE LOS REYES,24,,TETELA DEL MONTE,CUERNAVACA,CUERNAVACA,MORELOS,MEXICO,62130,capufe@elmundoestuyo.com.mx,1398941142918,25/08/2016
CPF6307036N8,CAMINOS Y PUENTES FEDERALES DE INGRESOS Y SERVICIOS CONEXOS,CALZADA DE LOS REYES,24,,TETELA DEL MONTE,CUERNAVACA,CUERNAVACA,MORELOS,MEXICO,62130,capufe@elmundoestuyo.com.mx,1398941142939,25/08/2016
CPF6307036N8,CAMINOS Y PUENTES FEDERALES DE INGRESOS Y SERVICIOS CONEXOS,CALZADA DE LOS REYES,24,,TETELA DEL MONTE,CUERNAVACA,CUERNAVACA,MORELOS,MEXICO,62130,capufe@elmundoestuyo.com.mx,1398941142940,25/08/2016
CPF6307036N8,CAMINOS Y PUENTES FEDERALES DE INGRESOS Y SERVICIOS CONEXOS,CALZADA DE LOS REYES,24,,TETELA DEL MONTE,CUERNAVACA,CUERNAVACA,MORELOS,MEXICO,62130,capufe@elmundoestuyo.com.mx,1398941142942,25/08/2016
CPF6307036N8,CAMINOS Y PUENTES FEDERALES DE INGRESOS Y SERVICIOS CONEXOS,CALZADA DE LOS REYES,24,,TETELA DEL MONTE,CUERNAVACA,CUERNAVACA,MORELOS,MEXICO,62130,capufe@elmundoestuyo.com.mx,1398941142943,25/08/2016
CPF6307036N8,CAMINOS Y PUENTES FEDERALES DE INGRESOS Y SERVICIOS CONEXOS,CALZADA DE LOS REYES,24,,TETELA DEL MONTE,CUERNAVACA,CUERNAVACA,MORELOS,MEXICO,62130,capufe@elmundoestuyo.com.mx,1398941145281,29/08/2016
CPF6307036N8,CAMINOS Y PUENTES FEDERALES DE INGRESOS Y SERVICIOS CONEXOS,CALZADA DE LOS REYES,24,,TETELA DEL MONTE,CUERNAVACA,CUERNAVACA,MORELOS,MEXICO,62130,capufe@elmundoestuyo.com.mx,1398941145282,29/08/2016
CPF6307036N8,CAMINOS Y PUENTES FEDERALES DE INGRESOS Y SERVICIOS CONEXOS,CALZADA DE LOS REYES,24,,TETELA DEL MONTE,CUERNAVACA,CUERNAVACA,MORELOS,MEXICO,62130,capufe@elmundoestuyo.com.mx,1398941153578,02/09/2016
CPF6307036N8,CAMINOS Y PUENTES FEDERALES DE INGRESOS Y SERVICIOS CONEXOS,CALZADA DE LOS REYES,24,,TETELA DEL MONTE,CUERNAVACA,CUERNAVACA,MORELOS,MEXICO,62130,capufe@elmundoestuyo.com.mx,1398941153579,02/09/2016
CPF6307036N8,CAMINOS Y PUENTES FEDERALES DE INGRESOS Y SERVICIOS CONEXOS,CALZADA DE LOS REYES,24,,TETELA DEL MONTE,CUERNAVACA,CUERNAVACA,MORELOS,MEXICO,62130,capufe@elmundoestuyo.com.mx,1398941154902,02/09/2016
CPF6307036N8,CAMINOS Y PUENTES FEDERALES DE INGRESOS Y SERVICIOS CONEXOS,CALZADA DE LOS REYES,24,,TETELA DEL MONTE,CUERNAVACA,CUERNAVACA,MORELOS,MEXICO,62130,capufe@elmundoestuyo.com.mx,1398941154936,02/09/2016
CPF6307036N8,CAMINOS Y PUENTES FEDERALES DE INGRESOS Y SERVICIOS CONEXOS,CALZADA DE LOS REYES,24,,TETELA DEL MONTE,CUERNAVACA,CUERNAVACA,MORELOS,MEXICO,62130,capufe@elmundoestuyo.com.mx,1398941154938,02/09/2016
CPF6307036N8,CAMINOS Y PUENTES FEDERALES DE INGRESOS Y SERVICIOS CONEXOS,CALZADA DE LOS REYES,24,,TETELA DEL MONTE,CUERNAVACA,CUERNAVACA,MORELOS,MEXICO,62130,capufe@elmundoestuyo.com.mx,1398941154939,02/09/2016
CPF6307036N8,CAMINOS Y PUENTES FEDERALES DE INGRESOS Y SERVICIOS CONEXOS,CALZADA DE LOS REYES,24,,TETELA DEL MONTE,CUERNAVACA,CUERNAVACA,MORELOS,MEXICO,62130,capufe@elmundoestuyo.com.mx,1398941158341,07/09/2016
FFN850124HYA,FIDEICOMISO FONDO NACIONAL DE HABITACIONES POPULARES,INSURGENTES SUR,3483,,MIGUEL HIDALGO,TLALPAN,TLALPAN,DISTRITO FEDERAL,MEXICO,14020,fonhapo@elmundoestuyo.com.mx,1398941110566,01/08/2016
FFN850124HYA,FIDEICOMISO FONDO NACIONAL DE HABITACIONES POPULARES,INSURGENTES SUR,3483,,MIGUEL HIDALGO,TLALPAN,TLALPAN,DISTRITO FEDERAL,MEXICO,14020,fonhapo@elmundoestuyo.com.mx,1392719030555,10/08/2016
FFN850124HYA,FIDEICOMISO FONDO NACIONAL DE HABITACIONES POPULARES,INSURGENTES SUR,3483,,MIGUEL HIDALGO,TLALPAN,TLALPAN,DISTRITO FEDERAL,MEXICO,14020,fonhapo@elmundoestuyo.com.mx,1392816593878,12/08/2016
FFN850124HYA,FIDEICOMISO FONDO NACIONAL DE HABITACIONES POPULARES,INSURGENTES SUR,3483,,MIGUEL HIDALGO,TLALPAN,TLALPAN,DISTRITO FEDERAL,MEXICO,14020,fonhapo@elmundoestuyo.com.mx,1392816593887,12/08/2016
FFN850124HYA,FIDEICOMISO FONDO NACIONAL DE HABITACIONES POPULARES,INSURGENTES SUR,3483,,MIGUEL HIDALGO,TLALPAN,TLALPAN,DISTRITO FEDERAL,MEXICO,14020,fonhapo@elmundoestuyo.com.mx,1392816593881,12/08/2016
FFN850124HYA,FIDEICOMISO FONDO NACIONAL DE HABITACIONES POPULARES,INSURGENTES SUR,3483,,MIGUEL HIDALGO,TLALPAN,TLALPAN,DISTRITO FEDERAL,MEXICO,14020,fonhapo@elmundoestuyo.com.mx,1392816593883,12/08/2016
FFN850124HYA,FIDEICOMISO FONDO NACIONAL DE HABITACIONES POPULARES,INSURGENTES SUR,3483,,MIGUEL HIDALGO,TLALPAN,TLALPAN,DISTRITO FEDERAL,MEXICO,14020,fonhapo@elmundoestuyo.com.mx,1392816594278,17/08/2016
FFN850124HYA,FIDEICOMISO FONDO NACIONAL DE HABITACIONES POPULARES,INSURGENTES SUR,3483,,MIGUEL HIDALGO,TLALPAN,TLALPAN,DISTRITO FEDERAL,MEXICO,14020,fonhapo@elmundoestuyo.com.mx,1392816594580,19/08/2016
FFN850124HYA,FIDEICOMISO FONDO NACIONAL DE HABITACIONES POPULARES,INSURGENTES SUR,3483,,MIGUEL HIDALGO,TLALPAN,TLALPAN,DISTRITO FEDERAL,MEXICO,14020,fonhapo@elmundoestuyo.com.mx,1392816594581,19/08/2016
FFN850124HYA,FIDEICOMISO FONDO NACIONAL DE HABITACIONES POPULARES,INSURGENTES SUR,3483,,MIGUEL HIDALGO,TLALPAN,TLALPAN,DISTRITO FEDERAL,MEXICO,14020,fonhapo@elmundoestuyo.com.mx,1392816594583,19/08/2016
FFN850124HYA,FIDEICOMISO FONDO NACIONAL DE HABITACIONES POPULARES,INSURGENTES SUR,3483,,MIGUEL HIDALGO,TLALPAN,TLALPAN,DISTRITO FEDERAL,MEXICO,14020,fonhapo@elmundoestuyo.com.mx,1392816594585,19/08/2016
FFN850124HYA,FIDEICOMISO FONDO NACIONAL DE HABITACIONES POPULARES,INSURGENTES SUR,3483,,MIGUEL HIDALGO,TLALPAN,TLALPAN,DISTRITO FEDERAL,MEXICO,14020,fonhapo@elmundoestuyo.com.mx,1392816594553,19/08/2016
FFN850124HYA,FIDEICOMISO FONDO NACIONAL DE HABITACIONES POPULARES,INSURGENTES SUR,3483,,MIGUEL HIDALGO,TLALPAN,TLALPAN,DISTRITO FEDERAL,MEXICO,14020,fonhapo@elmundoestuyo.com.mx,1392816594554,19/08/2016
FFN850124HYA,FIDEICOMISO FONDO NACIONAL DE HABITACIONES POPULARES,INSURGENTES SUR,3483,,MIGUEL HIDALGO,TLALPAN,TLALPAN,DISTRITO FEDERAL,MEXICO,14020,fonhapo@elmundoestuyo.com.mx,1392816594555,19/08/2016
FFN850124HYA,FIDEICOMISO FONDO NACIONAL DE HABITACIONES POPULARES,INSURGENTES SUR,3483,,MIGUEL HIDALGO,TLALPAN,TLALPAN,DISTRITO FEDERAL,MEXICO,14020,fonhapo@elmundoestuyo.com.mx,1398941141578,24/08/2016
FFN850124HYA,FIDEICOMISO FONDO NACIONAL DE HABITACIONES POPULARES,INSURGENTES SUR,3483,,MIGUEL HIDALGO,TLALPAN,TLALPAN,DISTRITO FEDERAL,MEXICO,14020,fonhapo@elmundoestuyo.com.mx,1392816595119,24/08/2016
FFN850124HYA,FIDEICOMISO FONDO NACIONAL DE HABITACIONES POPULARES,INSURGENTES SUR,3483,,MIGUEL HIDALGO,TLALPAN,TLALPAN,DISTRITO FEDERAL,MEXICO,14020,fonhapo@elmundoestuyo.com.mx,1398941143648,26/08/2016
FFN850124HYA,FIDEICOMISO FONDO NACIONAL DE HABITACIONES POPULARES,INSURGENTES SUR,3483,,MIGUEL HIDALGO,TLALPAN,TLALPAN,DISTRITO FEDERAL,MEXICO,14020,fonhapo@elmundoestuyo.com.mx,1392816595499,26/08/2016
FFN850124HYA,FIDEICOMISO FONDO NACIONAL DE HABITACIONES POPULARES,INSURGENTES SUR,3483,,MIGUEL HIDALGO,TLALPAN,TLALPAN,DISTRITO FEDERAL,MEXICO,14020,fonhapo@elmundoestuyo.com.mx,1398941144314,26/08/2016
FFN850124HYA,FIDEICOMISO FONDO NACIONAL DE HABITACIONES POPULARES,INSURGENTES SUR,3483,,MIGUEL HIDALGO,TLALPAN,TLALPAN,DISTRITO FEDERAL,MEXICO,14020,fonhapo@elmundoestuyo.com.mx,1392816595516,26/08/2016
FFN850124HYA,FIDEICOMISO FONDO NACIONAL DE HABITACIONES POPULARES,INSURGENTES SUR,3483,,MIGUEL HIDALGO,TLALPAN,TLALPAN,DISTRITO FEDERAL,MEXICO,14020,fonhapo@elmundoestuyo.com.mx,1398941144317,26/08/2016
FFN850124HYA,FIDEICOMISO FONDO NACIONAL DE HABITACIONES POPULARES,INSURGENTES SUR,3483,,MIGUEL HIDALGO,TLALPAN,TLALPAN,DISTRITO FEDERAL,MEXICO,14020,fonhapo@elmundoestuyo.com.mx,1392816595520,26/08/2016
FFN850124HYA,FIDEICOMISO FONDO NACIONAL DE HABITACIONES POPULARES,INSURGENTES SUR,3483,,MIGUEL HIDALGO,TLALPAN,TLALPAN,DISTRITO FEDERAL,MEXICO,14020,fonhapo@elmundoestuyo.com.mx,1398941144329,26/08/2016
FFN850124HYA,FIDEICOMISO FONDO NACIONAL DE HABITACIONES POPULARES,INSURGENTES SUR,3483,,MIGUEL HIDALGO,TLALPAN,TLALPAN,DISTRITO FEDERAL,MEXICO,14020,fonhapo@elmundoestuyo.com.mx,1392816595523,26/08/2016
FFN850124HYA,FIDEICOMISO FONDO NACIONAL DE HABITACIONES POPULARES,INSURGENTES SUR,3483,,MIGUEL HIDALGO,TLALPAN,TLALPAN,DISTRITO FEDERAL,MEXICO,14020,fonhapo@elmundoestuyo.com.mx,1398941144330,26/08/2016
FFN850124HYA,FIDEICOMISO FONDO NACIONAL DE HABITACIONES POPULARES,INSURGENTES SUR,3483,,MIGUEL HIDALGO,TLALPAN,TLALPAN,DISTRITO FEDERAL,MEXICO,14020,fonhapo@elmundoestuyo.com.mx,1392816595524,26/08/2016
FFN850124HYA,FIDEICOMISO FONDO NACIONAL DE HABITACIONES POPULARES,INSURGENTES SUR,3483,,MIGUEL HIDALGO,TLALPAN,TLALPAN,DISTRITO FEDERAL,MEXICO,14020,fonhapo@elmundoestuyo.com.mx,1398941153518,01/09/2016
FFN850124HYA,FIDEICOMISO FONDO NACIONAL DE HABITACIONES POPULARES,INSURGENTES SUR,3483,,MIGUEL HIDALGO,TLALPAN,TLALPAN,DISTRITO FEDERAL,MEXICO,14020,fonhapo@elmundoestuyo.com.mx,1392816596055,01/09/2016
FFN850124HYA,FIDEICOMISO FONDO NACIONAL DE HABITACIONES POPULARES,INSURGENTES SUR,3483,,MIGUEL HIDALGO,TLALPAN,TLALPAN,DISTRITO FEDERAL,MEXICO,14020,fonhapo@elmundoestuyo.com.mx,1398941153526,01/09/2016
FFN850124HYA,FIDEICOMISO FONDO NACIONAL DE HABITACIONES POPULARES,INSURGENTES SUR,3483,,MIGUEL HIDALGO,TLALPAN,TLALPAN,DISTRITO FEDERAL,MEXICO,14020,fonhapo@elmundoestuyo.com.mx,1392816596057,01/09/2016
FFN850124HYA,FIDEICOMISO FONDO NACIONAL DE HABITACIONES POPULARES,INSURGENTES SUR,3483,,MIGUEL HIDALGO,TLALPAN,TLALPAN,DISTRITO FEDERAL,MEXICO,14020,fonhapo@elmundoestuyo.com.mx,1398941153529,01/09/2016
FFN850124HYA,FIDEICOMISO FONDO NACIONAL DE HABITACIONES POPULARES,INSURGENTES SUR,3483,,MIGUEL HIDALGO,TLALPAN,TLALPAN,DISTRITO FEDERAL,MEXICO,14020,fonhapo@elmundoestuyo.com.mx,1392816596058,01/09/2016
FFN850124HYA,FIDEICOMISO FONDO NACIONAL DE HABITACIONES POPULARES,INSURGENTES SUR,3483,,MIGUEL HIDALGO,TLALPAN,TLALPAN,DISTRITO FEDERAL,MEXICO,14020,fonhapo@elmundoestuyo.com.mx,1398941154981,02/09/2016
FFN850124HYA,FIDEICOMISO FONDO NACIONAL DE HABITACIONES POPULARES,INSURGENTES SUR,3483,,MIGUEL HIDALGO,TLALPAN,TLALPAN,DISTRITO FEDERAL,MEXICO,14020,fonhapo@elmundoestuyo.com.mx,1392816596193,02/09/2016
FFN850124HYA,FIDEICOMISO FONDO NACIONAL DE HABITACIONES POPULARES,INSURGENTES SUR,3483,,MIGUEL HIDALGO,TLALPAN,TLALPAN,DISTRITO FEDERAL,MEXICO,14020,fonhapo@elmundoestuyo.com.mx,1398941154983,02/09/2016
FFN850124HYA,FIDEICOMISO FONDO NACIONAL DE HABITACIONES POPULARES,INSURGENTES SUR,3483,,MIGUEL HIDALGO,TLALPAN,TLALPAN,DISTRITO FEDERAL,MEXICO,14020,fonhapo@elmundoestuyo.com.mx,1392816596194,02/09/2016
